…
### Find the total number of homicides within cities.

``` r
homicide_df %>% 
  group_by(city_state) %>% 
  count(city_state) %>% 
  summarize(n) 
```

    ## # A tibble: 51 × 2
    ##    city_state         n
    ##    <chr>          <int>
    ##  1 Albuquerque,NM   378
    ##  2 Atlanta,GA       973
    ##  3 Baltimore,MD    2827
    ##  4 Baton Rouge,LA   424
    ##  5 Birmingham,AL    800
    ##  6 Boston,MA        614
    ##  7 Buffalo,NY       521
    ##  8 Charlotte,NC     687
    ##  9 Chicago,IL      5535
    ## 10 Cincinnati,OH    694
    ## # … with 41 more rows
…
